[gd_resource type="Resource" script_class="Character" load_steps=2 format=3 uid="uid://bpxjg3ehbucxo"]

[ext_resource type="Script" path="res://shared/character_resource.gd" id="1_bn3s2"]

[resource]
resource_local_to_scene = true
script = ExtResource("1_bn3s2")
name = "Player"
base_health = 10
base_damage = 1
base_defense = 0
base_speed = 5
base_knockback_resistance = 5
